SourceRack,SourceWell,DestinationRack,DestinationWell,Volume
media_164132,A1,passage_ABC123,A1,489.53
media_164132,A2,passage_ABC123,A2,446.98
media_164132,A3,passage_ABC123,A3,584.93
media_164132,A4,passage_ABC123,A4,464.52
media_164132,A5,passage_ABC123,A5,535.29
media_164132,A6,passage_ABC123,A6,328.40
media_164132,A7,passage_ABC123,A7,98.52
media_164132,A8,passage_ABC123,A8,446.98
media_164132,A9,passage_ABC123,A9,609.25
media_164132,A10,passage_ABC123,A10,540.65
media_164132,A11,passage_ABC123,A11,453.65
media_164132,A12,passage_ABC123,A12,87.31
media_164132,B1,passage_ABC123,B1,387.08
media_164132,B2,passage_ABC123,B2,416.85
media_164132,B3,passage_ABC123,B3,413.23
media_164132,B4,passage_ABC123,B4,607.04
media_164132,B5,passage_ABC123,B5,515.92
media_164132,B6,passage_ABC123,B6,540.65
media_164132,B7,passage_ABC123,B7,200.00
media_164132,B8,passage_ABC123,B8,321.08
media_164132,B9,passage_ABC123,B9,476.17
media_164132,B10,passage_ABC123,B10,646.08
media_164132,B11,passage_ABC123,B11,258.33
media_164132,B12,passage_ABC123,B12,355.23
media_164132,C1,passage_ABC123,C1,274.76
media_164132,C2,passage_ABC123,C2,565.54
media_164132,C3,passage_ABC123,C3,738.20
media_164132,C4,passage_ABC123,C4,556.29
media_164132,C5,passage_ABC123,C5,450.33
media_164132,C6,passage_ABC123,C6,200.00
media_164132,C7,passage_ABC123,C7,446.98
media_164132,C8,passage_ABC123,C8,409.59
media_164132,C9,passage_ABC123,C9,663.37
media_164132,C10,passage_ABC123,C10,487.50
media_164132,C11,passage_ABC123,C11,615.07
media_164132,C12,passage_ABC123,C12,339.88
media_164132,D1,passage_ABC123,D1,422.81
media_164132,D2,passage_ABC123,D2,653.23
media_164132,D3,passage_ABC123,D3,309.15
media_164132,D4,passage_ABC123,D4,324.02
media_164132,D5,passage_ABC123,D5,309.15
media_164132,D6,passage_ABC123,D6,372.75
media_164132,D7,passage_ABC123,D7,437.93
media_164132,D8,passage_ABC123,D8,432.18
media_164132,D9,passage_ABC123,D9,576.17
media_164132,D10,passage_ABC123,D10,387.08
media_164132,D11,passage_ABC123,D11,428.69
media_164132,D12,passage_ABC123,D12,165.62
media_164132,E1,passage_ABC123,E1,253.30
media_164132,E2,passage_ABC123,E2,607.04
media_164132,E3,passage_ABC123,E3,409.59
media_164132,E4,passage_ABC123,E4,495.54
media_164132,E5,passage_ABC123,E5,684.47
media_164132,E6,passage_ABC123,E6,500.49
media_164132,E7,passage_ABC123,E7,700.92
media_164132,E8,passage_ABC123,E8,556.29
media_164132,E9,passage_ABC123,E9,515.92
media_164132,E10,passage_ABC123,E10,629.90
media_164132,E11,passage_ABC123,E11,266.61
media_164132,E12,passage_ABC123,E12,481.36
media_164132,F1,passage_ABC123,F1,133.03
media_164132,F2,passage_ABC123,F2,523.42
media_164132,F3,passage_ABC123,F3,609.25
media_164132,F4,passage_ABC123,F4,211.22
media_164132,F5,passage_ABC123,F5,368.77
media_164132,F6,passage_ABC123,F6,200.00
media_164132,F7,passage_ABC123,F7,261.66
media_164132,F8,passage_ABC123,F8,505.38
media_164132,F9,passage_ABC123,F9,244.81
media_164132,F10,passage_ABC123,F10,422.81
media_164132,F11,passage_ABC123,F11,467.73
media_164132,F12,passage_ABC123,F12,526.19
media_164132,G1,passage_ABC123,G1,116.03
media_164132,G2,passage_ABC123,G2,428.69
media_164132,G3,passage_ABC123,G3,366.09
media_164132,G4,passage_ABC123,G4,464.52
media_164132,G5,passage_ABC123,G5,481.36
media_164132,G6,passage_ABC123,G6,387.08
media_164132,G7,passage_ABC123,G7,459.12
media_164132,G8,passage_ABC123,G8,467.73
media_164132,G9,passage_ABC123,G9,503.43
media_164132,G10,passage_ABC123,G10,432.18
media_164132,G11,passage_ABC123,G11,387.08
media_164132,G12,passage_ABC123,G12,253.30
media_164132,H1,passage_ABC123,H1,650.00
media_164132,H2,passage_ABC123,H2,205.72
media_164132,H3,passage_ABC123,H3,464.52
media_164132,H4,passage_ABC123,H4,476.17
media_164132,H5,passage_ABC123,H5,287.54
media_164132,H6,passage_ABC123,H6,393.44
media_164132,H7,passage_ABC123,H7,481.36
media_164132,H8,passage_ABC123,H8,389.64
media_164132,H9,passage_ABC123,H9,587.28
media_164132,H10,passage_ABC123,H10,503.43
media_164132,H11,passage_ABC123,H11,181.24
media_164132,H12,passage_ABC123,H12,428.69