{
  "mediaBarcode": "media_164133",
  "passageBarcode": "passage_164133",
  "countBarcode": "count_164133",
  "postCountBarcode": "complete after passage",
  "plateCount": 99,
  "countInstrument": "Cytation",
  "passageVolume": 1300.0,
  "passageDensity": 0.5,
  "countLeadTime": 59,
  "postCount": true,
  "mediaWorklist": null,
  "sampleWorklist": null,
  "MediaBarcode": "media_164133",
  "PassageBarcode": "passage_164133",
  "CountBarcode": "count_164133",
  "PostCountBarcode": "complete after passage",
  "PlateCount": 99,
  "CountInstrument": "Cytation",
  "PassageVolume": 1300.0,
  "PassageDensity": 0.5,
  "CountLeadTime": 59,
  "PostCount": true,
  "MediaWorklist": null,
  "SampleWorklist": null,
  "ExperimentId": "experiment_164133",
  "ProcessType": "UpsideFoods.AssayBuilder.Passage, UpsideFoods, Version=1.0.0.0, Culture=neutral, PublicKeyToken=null",
  "Assay": "my process assay 164133",
  "SourceBarcode": "source_164133",
  "StartTime": "2023-05-02T17:14:33.0486533-07:00",
  "StartTimeString": "2023May02-17:14:33",
  "FinishTime": "0001-01-01T00:00:00",
  "FinishTimeString": "0001Jan01-00:00:00"
}