{
  "ExperimentId": "experiment_164133",
  "ProcessType": "UpsideFoods.AssayBuilder.Process, UpsideFoods, Version=1.0.0.0, Culture=neutral, PublicKeyToken=null",
  "Assay": "my process assay 164133",
  "SourceBarcode": "source_164133",
  "StartTime": "2023-05-06T19:41:33.0316811-07:00",
  "StartTimeString": "2023May06-19:41:33",
  "FinishTime": "0001-01-01T00:00:00",
  "FinishTimeString": "0001Jan01-00:00:00"
}